{
  "preset": "ts-jest",
  "testEnvironment": "node",
  "coverageThreshold": {
    "global": {
      "statements": 80,
      "branches": 80,
      "functions": 80,
      "lines": 80
    }
  },
  "globals": {
    "ts-jest": {
      "astTransformers": {
        "before": ["ts-nameof"]
      }
    }
  },
  "collectCoverage": true,
  "coverageDirectory": "../coverage",
  "coveragePathIgnorePatterns": [
    "node_modules/",
    "src/test/",
    "src/docs_openapi/",
    "src/db/migrations/"
  ],
  "moduleFileExtensions": ["js", "json", "ts"],
  "rootDir": "src",
  "setupFilesAfterEnv": ["./test/setupTests.ts"],
  "testRegex": "\\.test\\.ts$"
}
